<?xml version="1.0" encoding="utf-8"?>
<!-- Generated by IcoMoon.io -->
<!DOCTYPE svg PUBLIC "-//W3C//DTD SVG 1.1//EN" "http://www.w3.org/Graphics/SVG/1.1/DTD/svg11.dtd">
<svg version="1.1" xmlns="http://www.w3.org/2000/svg" xmlns:xlink="http://www.w3.org/1999/xlink" width="32" height="32" viewBox="0 0 32 32">
<path fill="#000" d="M19.733 21.267l-19.533-8.067c-0.133-0.067-0.2-0.133-0.2-0.267-0.067-0.133 0-0.267 0.133-0.333 0.2-0.2 5.667-5.6 7.267-6.667 0.533-0.4 1.2-0.6 1.933-0.6 0.867 0 1.533 0.333 1.733 0.4 0.333 0.133 4.733 1.8 9.2 3.467 2.267 0.867 4.6 1.733 6.333 2.4 0.867 0.333 1.533 0.6 2.067 0.8 0.333 0.133 0.533 0.2 0.667 0.267 0.067 0 0.067 0 0.067 0 0.333 0.133 0.267 0.2 0.267 0.4-0.067 0.2-0.267 0.333-0.467 0.267s-1.267-0.467-2.533 1c-2.133 2.4-6.4 6.8-6.467 6.867-0.067 0.133-0.2 0.133-0.267 0.133-0.067-0.067-0.133-0.067-0.2-0.067zM19.8 20.467c0.867-0.867 4.4-4.533 6.267-6.6 0.533-0.6 1-0.933 1.467-1.133-3.467-1.333-11.8-4.533-16.733-6.467 0 0-0.067 0-0.067-0.067 0 0-0.6-0.333-1.4-0.333-0.6 0-1.067 0.2-1.533 0.533-1.333 1-5.533 5-6.867 6.267l18.867 7.8z"></path>
<path fill="#000" d="M22.067 26.867c-1 0-1.667-0.667-1.933-1.4-0.333-0.867-0.2-2 0.6-2.333 2.667-1.133 4.4-2.467 5.6-3.467 1.2-1.067 1.733-2.133 1.933-2.667l-3.333-1.067c-0.2-0.067-0.267-0.267-0.2-0.467s0.267-0.267 0.467-0.2l3.733 1.2c0.2 0.067 0.267 0.267 0.267 0.467 0 0.067-0.4 1.8-2.267 3.4-1.267 1.067-3 2.467-5.8 3.667-0.467-0.067-0.533 0.6-0.267 1.2 0.133 0.333 0.667 1.333 2.133 0.733 1.733-0.667 5.4-3.733 7.067-6.2 1.267-1.867 1.533-3.533 0.733-5.067-0.733-1.467-2.533-1.4-2.533-1.4-0.2 0-0.333-0.133-0.4-0.333 0-0.2 0.133-0.333 0.333-0.4 0.133 0 2.267-0.133 3.267 1.8 0.933 1.8 0.667 3.733-0.733 5.867-1.6 2.333-5.4 5.667-7.4 6.467-0.533 0.133-0.933 0.2-1.267 0.2z"></path>
<path fill="#000" d="M21.867 26.867c-0.067 0-0.067 0-0.133-0.067-2-0.733-19.6-7.267-20.533-8.133-0.8-0.667-0.933-1.4-0.867-1.933 0.067-0.733 0.467-1.333 0.867-1.533 0.333-0.2 2.067-1.4 2.067-1.4l0.4 0.6c0 0-1.733 1.133-2.067 1.4-0.2 0.133-0.533 0.533-0.533 1-0.067 0.467 0.2 0.933 0.6 1.333 0.667 0.6 12.533 5.067 20.333 8 0.2 0.067 0.267 0.267 0.2 0.467s-0.2 0.267-0.333 0.267z"></path>
<path fill="#000" d="M20.6 17.4c-0.067 0-0.133 0-0.133-0.067l-7.933-3.2c-0.2-0.067-0.267-0.267-0.2-0.467s0.267-0.267 0.467-0.2l7.933 3.2c0.2 0.067 0.267 0.267 0.2 0.467s-0.2 0.267-0.333 0.267z"></path>
<path fill="#000" d="M23 14.867c-0.067 0-0.067 0-0.133-0.067l-8-3.133c-0.2-0.067-0.267-0.267-0.2-0.467s0.267-0.267 0.467-0.2l8 3.133c0.2 0.067 0.267 0.267 0.2 0.467s-0.2 0.267-0.333 0.267z"></path>
<path fill="#000" d="M10.067 14.267l-5.133-2c-0.133-0.067-0.2-0.133-0.2-0.267-0.067-0.133 0-0.267 0.133-0.333l4.333-4.2c0.133-0.133 0.267-0.133 0.4-0.067l5.2 2.133c0.133 0.067 0.2 0.133 0.2 0.267 0.067 0.133 0 0.267-0.133 0.333l-4.333 4.133c-0.133 0.067-0.2 0.067-0.267 0.067-0.067-0.067-0.133-0.067-0.2-0.067zM10.133 13.467l3.8-3.6-4.467-1.8-3.733 3.667 4.4 1.733z"></path>
</svg>
