<?xml version="1.0" encoding="utf-8"?>
<!-- Generated by IcoMoon.io -->
<!DOCTYPE svg PUBLIC "-//W3C//DTD SVG 1.1//EN" "http://www.w3.org/Graphics/SVG/1.1/DTD/svg11.dtd">
<svg version="1.1" xmlns="http://www.w3.org/2000/svg" xmlns:xlink="http://www.w3.org/1999/xlink" width="32" height="32" viewBox="0 0 32 32">
<path fill="#000" d="M20.467 14.333c0.067 0.133 0.133 0.267 0.133 0.467l9.667 1.267-9.667 1.267c-0.067 0.133-0.067 0.267-0.133 0.467l11.333-1.533c0.067 0 0.2-0.067 0.2-0.2s-0.067-0.2-0.2-0.2v0l-11.333-1.533zM11.467 14.8c0.067-0.133 0.067-0.267 0.133-0.467l-11.4 1.533c-0.133 0-0.2 0.133-0.2 0.2 0 0.133 0.067 0.2 0.2 0.2l11.333 1.533c-0.067-0.133-0.133-0.267-0.133-0.467l-9.533-1.267 9.6-1.267zM17.733 20.533c-0.133 0.067-0.267 0.133-0.467 0.133l-1.267 9.667-1.267-9.733c-0.133-0.067-0.267-0.067-0.467-0.133l1.533 11.4c0 0.067 0.067 0.2 0.2 0.2s0.2-0.067 0.2-0.2v0l1.533-11.333zM14.333 11.6c0.133-0.067 0.267-0.133 0.467-0.133l1.2-9.667 1.267 9.733c0.133 0.067 0.267 0.067 0.467 0.133l-1.533-11.4c0-0.067-0.067-0.2-0.2-0.2s-0.2 0.067-0.2 0.2v0l-1.467 11.333zM20.333 18.133c-0.067 0.133-0.133 0.267-0.2 0.4l2 3.6-3.6-2c-0.133 0.067-0.267 0.133-0.467 0.2l4.467 2.467c0.067 0.067 0.133 0.067 0.2 0 0.133-0.067 0.133-0.2 0.067-0.267l-2.467-4.4zM11.733 14.067c0.067-0.133 0.133-0.267 0.2-0.4l-2-3.6 3.6 2c0.133-0.067 0.267-0.133 0.4-0.2l-4.467-2.467c-0.067-0.067-0.133-0.067-0.2 0s-0.133 0.2-0.067 0.267l2.533 4.4zM18.067 11.733c0.133 0.067 0.267 0.133 0.4 0.2l3.6-2-2 3.6c0.067 0.133 0.133 0.267 0.2 0.4l2.467-4.467c0.067-0.067 0.067-0.133 0-0.2s-0.2-0.133-0.267-0.067v0l-4.4 2.533zM9.6 22.8c-0.067 0.067-0.133 0.067-0.2 0s-0.133-0.2-0.067-0.267v0l2.467-4.467c0.067 0.133 0.133 0.267 0.2 0.4l-2 3.6 3.6-2c0.133 0.067 0.267 0.133 0.467 0.267l-4.467 2.467z"></path>
<path fill="#000" d="M13 19.2c-0.8-0.8-1.267-1.867-1.267-3.067s0.467-2.267 1.267-3.067c0.8-0.8 1.867-1.267 3.067-1.267s2.267 0.467 3.067 1.267c0.8 0.8 1.267 1.867 1.267 3.067s-0.467 2.267-1.267 3.067c-0.8 0.8-1.867 1.267-3.067 1.267s-2.267-0.533-3.067-1.267zM16 20.067c1.067 0 2.067-0.467 2.8-1.133 0.733-0.733 1.133-1.667 1.133-2.8 0-1.067-0.467-2.067-1.133-2.8-0.733-0.733-1.667-1.133-2.8-1.133s-2.067 0.467-2.8 1.133c-0.733 0.733-1.133 1.667-1.133 2.8 0 1.067 0.467 2.067 1.133 2.8 0.8 0.667 1.8 1.133 2.8 1.133z"></path>
<path fill="#000" d="M17.6 15.133l1.467 2.467c0.067 0.067 0 0.2-0.067 0.267 0 0-0.067 0-0.133 0h-5.733c-0.133 0-0.2-0.067-0.2-0.2 0-0.067 0-0.067 0.067-0.133l2.8-4.933c0.067-0.067 0.2-0.133 0.267-0.067 0.067 0 0.067 0.067 0.067 0.067l1.467 2.533zM17.267 15.333l-1.267-2.2-1.267 2.133-1.267 2.2h5l-1.2-2.133z"></path>
</svg>
